// Jest Snapshot v1, https://goo.gl/fbAQLP

exports[`Components/TextInput should match the snapshot 1`] = `
.c0 {
  color: rgb(68,68,68);
  cursor: default;
  display: block;
  font-family: "Open Sans","Segoe UI",Tahoma,sans-serif;
  font-size: 14px;
  font-weight: 400;
  height: 24px;
  line-height: 20px;
  padding-bottom: 4px;
  width: 100%;
}

.c1 {
  position: relative;
  width: 100%;
}

.c1 > button {
  position: absolute;
  right: 0;
  top: 0;
  margin: 10px;
}

.c2 {
  background-color: rgb(255,255,255);
  border: 1px solid rgb(200,174,91);
  border-radius: 4px;
  color: rgb(0,0,0);
  cursor: text;
  display: inline-block;
  font-family: "Open Sans","Segoe UI",Tahoma,sans-serif;
  font-size: 16px;
  height: 48px;
  line-height: 24px;
  min-width: 49px;
  padding: 8px 16px;
  width: 100%;
  outline-style: none;
}

.c2:focus {
  border-color: #0f6193;
}

<label
  class=""
>
  <span
    class="c0"
  />
  <div
    class="c1"
  >
    <input
      class="c2"
    />
  </div>
</label>
`;
